
______       ___  ___  _______________ 
| ___ \     / _ \ |  \/  ||  ___|  ___|
| |_/ /   _/ /_\ \| .  . || |_  | |_   
|  __/ | | |  _  || |\/| ||  _| |  _|  
| |  | |_| | | | || |  | || |   | |    
\_|   \__, \_| |_/\_|  |_/\_|   \_|    
       __/ |                           
      |___/  

Platform:            Linux
Platform-release:    5.10.0-17-amd64
Platform-version:    #1 SMP Debian 5.10.136-1 (2022-08-13)
Architecture:        x86_64
Hostname:            saskatchewan
IP-address:          127.0.1.1
MAC-address:         a0:42:3f:48:65:80
Processor:           AMD EPYC 7272 12-Core Processor
=======================================================
Starting a PyAMFF job at 11:57:14 11/02/22 CDT
=======================================================
Reading inputs from /home/namank/code/not_committed_version/examples/test_li/mytraj/cpu/config.ini
Reading fingerprint parameters from /home/namank/code/not_committed_version/examples/test_li/mytraj/cpu/fpParas.dat
  Fingerprints used:
    Type: BP
    Li:   2 G1s   2 G2s
Reading training images from /home/namank/code/not_committed_version/examples/test_li/mytraj/cpu/train_BCC_reduced.traj
Checking and preprocessing training images
  Number of training images: 69
  Calculating FPs for image 0
  Calculating FPs for image 20
  Calculating FPs for image 40
  Calculating FPs for image 60
Defining machine-learning model
  Model type: neural_network
  Model structure: 2
  Energy coefficient: 1.000000
  Force coefficent:   0.050000
  Energy tolerance:   0.000100
  Force tolerance:    0.010000
  Loss tolerance:     0.023853
Parallelization setup:
  Total number of batches:       4
  Number of processes:           4
  Number of batches per process: 1
Setup PyAMFF trainer:
=======================================================
Starting training
       Epoch      LossValue   EnergyLoss    ForceLoss   EnergyRMSE    ForceRMSE
           0    1.70888602   1.70756743   0.30016338   1.70756743   0.30016338
Max Epoch Reached
