#
BP
#
Li
0.0
#
10 16
#
G1   Li  Li   100.000000000000000001    1.0     6
G1   Li  Li   100.000000000000000001    1.5     6
G1   Li  Li   100.000000000000000001    2.5     6
G1   Li  Li   100.000000000000000001    3.0     6
G1   Li  Li   100.000000000000000001    3.5     6
G1   Li  Li   100.000000000000000001    4.0     6
G1   Li  Li   100.000000000000000001    4.5     6
G1   Li  Li   100.000000000000000001    5.0     6
G1   Li  Li   100.000000000000000001    5.5     6
G1   Li  Li   100.000000000000000001    5.9     6
##
G2   Li   Li   Li    0.005   200  1 0.34 6
G2   Li   Li   Li    0.005   200  1 0.52 6
G2   Li   Li   Li    0.005   200  1 0.69 6
G2   Li   Li   Li    0.005   200  1 0.87 6
G2   Li   Li   Li    0.005   200  1 0.95 6
G2   Li   Li   Li    0.005   200  1 1.04 6
G2   Li   Li   Li    0.005   200  1 1.13 6
G2   Li   Li   Li    0.005   200  1 1.22 6
G2   Li   Li   Li    0.005   200  1 1.31 6
G2   Li   Li   Li    0.005   200  1 1.39 6
G2   Li   Li   Li    0.005   200  1 1.48 6
G2   Li   Li   Li    0.005   200  1 1.57 6
G2   Li   Li   Li    0.005   200  1 1.74 6
G2   Li   Li   Li    0.005   200  1 1.91 6
G2   Li   Li   Li    0.005   200  1 2.09 6
G2   Li   Li   Li    0.005   200  1 2.26 6
